EESchema Schematic File Version 4
LIBS:buzzer-pcb-cache
EELAYER 26 0
EELAYER END
$Descr A4 11693 8268
encoding utf-8
Sheet 1 1
Title ""
Date ""
Rev ""
Comp ""
Comment1 ""
Comment2 ""
Comment3 ""
Comment4 ""
$EndDescr
$Comp
L power:GND #PWR0101
U 1 1 5CB6F989
P 6000 4150
F 0 "#PWR0101" H 6000 3900 50  0001 C CNN
F 1 "GND" H 6005 3977 50  0000 C CNN
F 2 "" H 6000 4150 50  0001 C CNN
F 3 "" H 6000 4150 50  0001 C CNN
	1    6000 4150
	1    0    0    -1  
$EndComp
NoConn ~ 4000 1850
NoConn ~ 6000 3500
$Comp
L Connector:RJ45 J2
U 1 1 5CB6FE59
P 4250 1700
F 0 "J2" H 4305 2367 50  0000 C CNN
F 1 "RJ45" H 4305 2276 50  0000 C CNN
F 2 "1-406525-1:TE_1-406525-1" V 4250 1725 50  0001 C CNN
F 3 "~" V 4250 1725 50  0001 C CNN
	1    4250 1700
	1    0    0    -1  
$EndComp
NoConn ~ 4650 2000
$Comp
L Device:R R1
U 1 1 5CB7022D
P 4950 1950
F 0 "R1" H 5020 1996 50  0000 L CNN
F 1 "1k" H 5020 1905 50  0000 L CNN
F 2 "Resistor_THT:R_Axial_DIN0207_L6.3mm_D2.5mm_P10.16mm_Horizontal" V 4880 1950 50  0001 C CNN
F 3 "~" H 4950 1950 50  0001 C CNN
	1    4950 1950
	1    0    0    -1  
$EndComp
$Comp
L Device:R R2
U 1 1 5CB702B1
P 5750 1400
F 0 "R2" H 5820 1446 50  0000 L CNN
F 1 "33k" H 5820 1355 50  0000 L CNN
F 2 "Resistor_THT:R_Axial_DIN0207_L6.3mm_D2.5mm_P10.16mm_Horizontal" V 5680 1400 50  0001 C CNN
F 3 "~" H 5750 1400 50  0001 C CNN
	1    5750 1400
	1    0    0    -1  
$EndComp
$Comp
L power:GND #PWR0102
U 1 1 5CB7046D
P 4950 2200
F 0 "#PWR0102" H 4950 1950 50  0001 C CNN
F 1 "GND" H 4955 2027 50  0000 C CNN
F 2 "" H 4950 2200 50  0001 C CNN
F 3 "" H 4950 2200 50  0001 C CNN
	1    4950 2200
	1    0    0    -1  
$EndComp
Wire Wire Line
	4650 1800 4950 1800
Connection ~ 4950 1800
Text Label 6050 1800 0    50   ~ 0
valve_inp
Wire Wire Line
	4950 2100 4950 2150
$Comp
L power:VCC #PWR0103
U 1 1 5CB705F3
P 5100 1050
F 0 "#PWR0103" H 5100 900 50  0001 C CNN
F 1 "VCC" H 5117 1223 50  0000 C CNN
F 2 "" H 5100 1050 50  0001 C CNN
F 3 "" H 5100 1050 50  0001 C CNN
	1    5100 1050
	1    0    0    -1  
$EndComp
$Comp
L power:VCC #PWR0104
U 1 1 5CB7060F
P 5100 1050
F 0 "#PWR0104" H 5100 900 50  0001 C CNN
F 1 "VCC" H 5117 1223 50  0000 C CNN
F 2 "" H 5100 1050 50  0001 C CNN
F 3 "" H 5100 1050 50  0001 C CNN
	1    5100 1050
	1    0    0    -1  
$EndComp
$Comp
L power:VCC #PWR0105
U 1 1 5CB70624
P 5750 1050
F 0 "#PWR0105" H 5750 900 50  0001 C CNN
F 1 "VCC" H 5767 1223 50  0000 C CNN
F 2 "" H 5750 1050 50  0001 C CNN
F 3 "" H 5750 1050 50  0001 C CNN
	1    5750 1050
	1    0    0    -1  
$EndComp
Wire Wire Line
	4650 1600 5100 1600
Wire Wire Line
	5100 1600 5100 1300
Wire Wire Line
	5750 1050 5750 1250
Wire Wire Line
	5750 1550 5750 1800
Connection ~ 5750 1800
Wire Wire Line
	5750 1800 6050 1800
Text Label 4650 1500 0    50   ~ 0
led_inp
Wire Wire Line
	4950 2150 4800 2150
Wire Wire Line
	4800 2150 4800 1900
Wire Wire Line
	4800 1900 4650 1900
Connection ~ 4950 2150
Wire Wire Line
	4950 2150 4950 2200
Wire Wire Line
	4650 1700 4800 1700
Wire Wire Line
	4800 1700 4800 1900
Connection ~ 4800 1900
$Comp
L power:VCC #PWR0106
U 1 1 5CB70903
P 6000 2250
F 0 "#PWR0106" H 6000 2100 50  0001 C CNN
F 1 "VCC" H 6017 2423 50  0000 C CNN
F 2 "" H 6000 2250 50  0001 C CNN
F 3 "" H 6000 2250 50  0001 C CNN
	1    6000 2250
	1    0    0    -1  
$EndComp
Wire Wire Line
	6000 3950 6000 4050
NoConn ~ 5400 3550
NoConn ~ 5400 3250
NoConn ~ 5400 3150
$Comp
L MCU_Microchip_ATtiny:ATtiny85-20PU U1
U 1 1 5CB6F881
P 6000 3350
F 0 "U1" H 5470 3396 50  0000 R CNN
F 1 "ATtiny85-20PU" H 5470 3305 50  0000 R CNN
F 2 "Package_DIP:DIP-8_W7.62mm" H 6000 3350 50  0001 C CIN
F 3 "http://ww1.microchip.com/downloads/en/DeviceDoc/atmel-2586-avr-8-bit-microcontroller-attiny25-attiny45-attiny85_datasheet.pdf" H 6000 3350 50  0001 C CNN
	1    6000 3350
	-1   0    0    -1  
$EndComp
Wire Wire Line
	6000 2250 6000 2300
$Comp
L Device:CP1 C1
U 1 1 5CB710AB
P 6250 2450
F 0 "C1" H 6365 2496 50  0000 L CNN
F 1 "10u" H 6365 2405 50  0000 L CNN
F 2 "Capacitor_THT:CP_Radial_D5.0mm_P2.00mm" H 6250 2450 50  0001 C CNN
F 3 "~" H 6250 2450 50  0001 C CNN
	1    6250 2450
	1    0    0    -1  
$EndComp
$Comp
L power:GND #PWR0107
U 1 1 5CB710FB
P 6250 2600
F 0 "#PWR0107" H 6250 2350 50  0001 C CNN
F 1 "GND" H 6255 2427 50  0000 C CNN
F 2 "" H 6250 2600 50  0001 C CNN
F 3 "" H 6250 2600 50  0001 C CNN
	1    6250 2600
	1    0    0    -1  
$EndComp
Wire Wire Line
	6250 2300 6000 2300
Connection ~ 6000 2300
Wire Wire Line
	6000 2300 6000 2750
Text Label 5100 3350 2    50   ~ 0
valve_inp
Text Label 5100 3450 2    50   ~ 0
led_inp
Wire Wire Line
	5400 3350 5100 3350
Wire Wire Line
	5100 3450 5400 3450
$Comp
L Connector:Conn_01x02_Male J1
U 1 1 5CB71E3E
P 4100 3050
F 0 "J1" H 4206 3228 50  0000 C CNN
F 1 "Conn_01x02_Male" H 4206 3137 50  0000 C CNN
F 2 "TerminalBlock_TE-Connectivity:TerminalBlock_TE_282834-2_1x02_P2.54mm_Horizontal" H 4100 3050 50  0001 C CNN
F 3 "~" H 4100 3050 50  0001 C CNN
	1    4100 3050
	1    0    0    -1  
$EndComp
Wire Wire Line
	5400 3050 4300 3050
$Comp
L power:GND #PWR0108
U 1 1 5CB7245E
P 4500 3250
F 0 "#PWR0108" H 4500 3000 50  0001 C CNN
F 1 "GND" H 4505 3077 50  0000 C CNN
F 2 "" H 4500 3250 50  0001 C CNN
F 3 "" H 4500 3250 50  0001 C CNN
	1    4500 3250
	1    0    0    -1  
$EndComp
Wire Wire Line
	4300 3150 4500 3150
Wire Wire Line
	4500 3150 4500 3250
$Comp
L Device:R R3
U 1 1 5CB72B08
P 7400 2500
F 0 "R3" H 7470 2546 50  0000 L CNN
F 1 "680R" H 7470 2455 50  0000 L CNN
F 2 "Resistor_THT:R_Axial_DIN0207_L6.3mm_D2.5mm_P10.16mm_Horizontal" V 7330 2500 50  0001 C CNN
F 3 "~" H 7400 2500 50  0001 C CNN
	1    7400 2500
	1    0    0    -1  
$EndComp
$Comp
L Device:LED D2
U 1 1 5CB72BEB
P 7400 2900
F 0 "D2" V 7438 2783 50  0000 R CNN
F 1 "LED" V 7347 2783 50  0000 R CNN
F 2 "LED_THT:LED_D5.0mm" H 7400 2900 50  0001 C CNN
F 3 "~" H 7400 2900 50  0001 C CNN
	1    7400 2900
	0    -1   -1   0   
$EndComp
$Comp
L power:GND #PWR0109
U 1 1 5CB72CA5
P 7400 3150
F 0 "#PWR0109" H 7400 2900 50  0001 C CNN
F 1 "GND" H 7405 2977 50  0000 C CNN
F 2 "" H 7400 3150 50  0001 C CNN
F 3 "" H 7400 3150 50  0001 C CNN
	1    7400 3150
	1    0    0    -1  
$EndComp
Wire Wire Line
	6250 2300 6700 2300
Wire Wire Line
	7400 2300 7400 2350
Connection ~ 6250 2300
Wire Wire Line
	7400 2650 7400 2750
Wire Wire Line
	7400 3050 7400 3150
$Comp
L power:PWR_FLAG #FLG0101
U 1 1 5CB74098
P 5100 1300
F 0 "#FLG0101" H 5100 1375 50  0001 C CNN
F 1 "PWR_FLAG" V 5100 1428 50  0000 L CNN
F 2 "" H 5100 1300 50  0001 C CNN
F 3 "~" H 5100 1300 50  0001 C CNN
	1    5100 1300
	0    1    1    0   
$EndComp
Connection ~ 5100 1300
Wire Wire Line
	5100 1300 5100 1050
$Comp
L power:PWR_FLAG #FLG0102
U 1 1 5CB742D3
P 6000 4050
F 0 "#FLG0102" H 6000 4125 50  0001 C CNN
F 1 "PWR_FLAG" V 6000 4178 50  0000 L CNN
F 2 "" H 6000 4050 50  0001 C CNN
F 3 "~" H 6000 4050 50  0001 C CNN
	1    6000 4050
	0    1    1    0   
$EndComp
Connection ~ 6000 4050
Wire Wire Line
	6000 4050 6000 4150
$Comp
L Device:D D1
U 1 1 5CBECFD9
P 5300 1800
F 0 "D1" H 5300 2016 50  0000 C CNN
F 1 "1N4148" H 5300 1925 50  0000 C CNN
F 2 "Diode_THT:D_DO-35_SOD27_P10.16mm_Horizontal" H 5300 1800 50  0001 C CNN
F 3 "~" H 5300 1800 50  0001 C CNN
	1    5300 1800
	1    0    0    -1  
$EndComp
Wire Wire Line
	5450 1800 5750 1800
Wire Wire Line
	4950 1800 5150 1800
$Comp
L Device:C C2
U 1 1 5CBED98C
P 6700 2450
F 0 "C2" H 6815 2496 50  0000 L CNN
F 1 "100  nF" H 6815 2405 50  0000 L CNN
F 2 "Capacitor_THT:C_Rect_L7.0mm_W2.0mm_P5.00mm" H 6738 2300 50  0001 C CNN
F 3 "~" H 6700 2450 50  0001 C CNN
	1    6700 2450
	1    0    0    -1  
$EndComp
Connection ~ 6700 2300
Wire Wire Line
	6700 2300 7400 2300
$Comp
L power:GND #PWR01
U 1 1 5CBEDA08
P 6700 2600
F 0 "#PWR01" H 6700 2350 50  0001 C CNN
F 1 "GND" H 6705 2427 50  0000 C CNN
F 2 "" H 6700 2600 50  0001 C CNN
F 3 "" H 6700 2600 50  0001 C CNN
	1    6700 2600
	1    0    0    -1  
$EndComp
$Comp
L power:GND #PWR?
U 1 1 5D15DD0F
P 4900 1100
F 0 "#PWR?" H 4900 850 50  0001 C CNN
F 1 "GND" H 4905 927 50  0000 C CNN
F 2 "" H 4900 1100 50  0001 C CNN
F 3 "" H 4900 1100 50  0001 C CNN
	1    4900 1100
	1    0    0    -1  
$EndComp
Wire Wire Line
	4650 1400 4650 1300
Wire Wire Line
	4650 1300 4650 1100
Wire Wire Line
	4650 1100 4900 1100
Connection ~ 4650 1300
$EndSCHEMATC
